%YAML 1.1
%TAG !u! tag:unity3d.com,2011:
--- !u!114 &1056470640343280525
MonoBehaviour:
  m_ObjectHideFlags: 0
  m_CorrespondingSourceObject: {fileID: 0}
  m_PrefabInstance: {fileID: 0}
  m_PrefabAsset: {fileID: 0}
  m_GameObject: {fileID: 886923938386535717}
  m_Enabled: 1
  m_EditorHideFlags: 0
  m_Script: {fileID: 11500000, guid: a46f10c082c8eff4ebcfb7371e9d84cb, type: 3}
  m_Name: 
  m_EditorClassIdentifier: 
  Id: 2
  Black: {fileID: 2100000, guid: 20439aa6062348a48b40ada5c66bdd75, type: 2}
--- !u!65 &-6232624832703931415
BoxCollider:
  m_ObjectHideFlags: 0
  m_CorrespondingSourceObject: {fileID: 0}
  m_PrefabInstance: {fileID: 0}
  m_PrefabAsset: {fileID: 0}
  m_GameObject: {fileID: 2438133937616284636}
  m_Material: {fileID: 0}
  m_IsTrigger: 0
  m_Enabled: 1
  serializedVersion: 2
  m_Size: {x: 0.7, y: 2, z: 0.7}
  m_Center: {x: 0, y: 1, z: 0}
--- !u!114 &-3624799026004359264
MonoBehaviour:
  m_ObjectHideFlags: 0
  m_CorrespondingSourceObject: {fileID: 0}
  m_PrefabInstance: {fileID: 0}
  m_PrefabAsset: {fileID: 0}
  m_GameObject: {fileID: 2438133937616284636}
  m_Enabled: 1
  m_EditorHideFlags: 0
  m_Script: {fileID: 11500000, guid: a46f10c082c8eff4ebcfb7371e9d84cb, type: 3}
  m_Name: 
  m_EditorClassIdentifier: 
  Id: 2
  Black: {fileID: 2100000, guid: 20439aa6062348a48b40ada5c66bdd75, type: 2}
--- !u!1001 &886923938386436997
PrefabInstance:
  m_ObjectHideFlags: 0
  serializedVersion: 2
  m_Modification:
    m_TransformParent: {fileID: 2438133937616648188}
    m_Modifications:
    - target: {fileID: 400000, guid: 655746ad7a320435e83fa1313563ebfd, type: 3}
      propertyPath: m_LocalScale.x
      value: 15
      objectReference: {fileID: 0}
    - target: {fileID: 400000, guid: 655746ad7a320435e83fa1313563ebfd, type: 3}
      propertyPath: m_LocalScale.y
      value: 15
      objectReference: {fileID: 0}
    - target: {fileID: 400000, guid: 655746ad7a320435e83fa1313563ebfd, type: 3}
      propertyPath: m_LocalScale.z
      value: 100
      objectReference: {fileID: 0}
    - target: {fileID: 400000, guid: 655746ad7a320435e83fa1313563ebfd, type: 3}
      propertyPath: m_LocalPosition.x
      value: 0
      objectReference: {fileID: 0}
    - target: {fileID: 400000, guid: 655746ad7a320435e83fa1313563ebfd, type: 3}
      propertyPath: m_LocalPosition.y
      value: 1
      objectReference: {fileID: 0}
    - target: {fileID: 400000, guid: 655746ad7a320435e83fa1313563ebfd, type: 3}
      propertyPath: m_LocalPosition.z
      value: 0
      objectReference: {fileID: 0}
    - target: {fileID: 400000, guid: 655746ad7a320435e83fa1313563ebfd, type: 3}
      propertyPath: m_LocalRotation.w
      value: 0.7071068
      objectReference: {fileID: 0}
    - target: {fileID: 400000, guid: 655746ad7a320435e83fa1313563ebfd, type: 3}
      propertyPath: m_LocalRotation.x
      value: 0.7071068
      objectReference: {fileID: 0}
    - target: {fileID: 400000, guid: 655746ad7a320435e83fa1313563ebfd, type: 3}
      propertyPath: m_LocalRotation.y
      value: 0
      objectReference: {fileID: 0}
    - target: {fileID: 400000, guid: 655746ad7a320435e83fa1313563ebfd, type: 3}
      propertyPath: m_LocalRotation.z
      value: 0
      objectReference: {fileID: 0}
    - target: {fileID: 400000, guid: 655746ad7a320435e83fa1313563ebfd, type: 3}
      propertyPath: m_LocalEulerAnglesHint.x
      value: 90
      objectReference: {fileID: 0}
    m_RemovedComponents: []
  m_SourcePrefab: {fileID: 100100000, guid: 655746ad7a320435e83fa1313563ebfd, type: 3}
--- !u!1 &886923938386535717 stripped
GameObject:
  m_CorrespondingSourceObject: {fileID: 100000, guid: 655746ad7a320435e83fa1313563ebfd, type: 3}
  m_PrefabInstance: {fileID: 886923938386436997}
  m_PrefabAsset: {fileID: 0}
--- !u!1001 &2438133937616252284
PrefabInstance:
  m_ObjectHideFlags: 0
  serializedVersion: 2
  m_Modification:
    m_TransformParent: {fileID: 0}
    m_Modifications:
    - target: {fileID: 100000, guid: 655746ad7a320435e83fa1313563ebfd, type: 3}
      propertyPath: m_Name
      value: Slon
      objectReference: {fileID: 0}
    - target: {fileID: 100000, guid: 655746ad7a320435e83fa1313563ebfd, type: 3}
      propertyPath: m_IsActive
      value: 1
      objectReference: {fileID: 0}
    - target: {fileID: 400000, guid: 655746ad7a320435e83fa1313563ebfd, type: 3}
      propertyPath: m_RootOrder
      value: 0
      objectReference: {fileID: 0}
    - target: {fileID: 400000, guid: 655746ad7a320435e83fa1313563ebfd, type: 3}
      propertyPath: m_LocalScale.x
      value: 1
      objectReference: {fileID: 0}
    - target: {fileID: 400000, guid: 655746ad7a320435e83fa1313563ebfd, type: 3}
      propertyPath: m_LocalScale.y
      value: 1
      objectReference: {fileID: 0}
    - target: {fileID: 400000, guid: 655746ad7a320435e83fa1313563ebfd, type: 3}
      propertyPath: m_LocalScale.z
      value: 1
      objectReference: {fileID: 0}
    - target: {fileID: 400000, guid: 655746ad7a320435e83fa1313563ebfd, type: 3}
      propertyPath: m_LocalPosition.x
      value: 0
      objectReference: {fileID: 0}
    - target: {fileID: 400000, guid: 655746ad7a320435e83fa1313563ebfd, type: 3}
      propertyPath: m_LocalPosition.y
      value: 0
      objectReference: {fileID: 0}
    - target: {fileID: 400000, guid: 655746ad7a320435e83fa1313563ebfd, type: 3}
      propertyPath: m_LocalPosition.z
      value: 0
      objectReference: {fileID: 0}
    - target: {fileID: 400000, guid: 655746ad7a320435e83fa1313563ebfd, type: 3}
      propertyPath: m_LocalRotation.w
      value: 1
      objectReference: {fileID: 0}
    - target: {fileID: 400000, guid: 655746ad7a320435e83fa1313563ebfd, type: 3}
      propertyPath: m_LocalRotation.x
      value: 0
      objectReference: {fileID: 0}
    - target: {fileID: 400000, guid: 655746ad7a320435e83fa1313563ebfd, type: 3}
      propertyPath: m_LocalRotation.y
      value: 0
      objectReference: {fileID: 0}
    - target: {fileID: 400000, guid: 655746ad7a320435e83fa1313563ebfd, type: 3}
      propertyPath: m_LocalRotation.z
      value: 0
      objectReference: {fileID: 0}
    - target: {fileID: 400000, guid: 655746ad7a320435e83fa1313563ebfd, type: 3}
      propertyPath: m_LocalEulerAnglesHint.x
      value: 0
      objectReference: {fileID: 0}
    - target: {fileID: 400000, guid: 655746ad7a320435e83fa1313563ebfd, type: 3}
      propertyPath: m_LocalEulerAnglesHint.y
      value: 0
      objectReference: {fileID: 0}
    - target: {fileID: 400000, guid: 655746ad7a320435e83fa1313563ebfd, type: 3}
      propertyPath: m_LocalEulerAnglesHint.z
      value: 0
      objectReference: {fileID: 0}
    m_RemovedComponents:
    - {fileID: 3300000, guid: 655746ad7a320435e83fa1313563ebfd, type: 3}
    - {fileID: 2300000, guid: 655746ad7a320435e83fa1313563ebfd, type: 3}
  m_SourcePrefab: {fileID: 100100000, guid: 655746ad7a320435e83fa1313563ebfd, type: 3}
--- !u!1 &2438133937616284636 stripped
GameObject:
  m_CorrespondingSourceObject: {fileID: 100000, guid: 655746ad7a320435e83fa1313563ebfd, type: 3}
  m_PrefabInstance: {fileID: 2438133937616252284}
  m_PrefabAsset: {fileID: 0}
--- !u!4 &2438133937616648188 stripped
Transform:
  m_CorrespondingSourceObject: {fileID: 400000, guid: 655746ad7a320435e83fa1313563ebfd, type: 3}
  m_PrefabInstance: {fileID: 2438133937616252284}
  m_PrefabAsset: {fileID: 0}
